rv32i_mono/vcd/monociclo_tb.vcd
$date
	Tue Dec 02 11:42:32 2025
$end
$version
	Icarus Verilog
$end
$timescale
	1ps
$end
$scope module monociclo_tb $end
$var wire 32 ! pc_out [31:0] $end
$var wire 32 " next_pc_out [31:0] $end
$var wire 32 # inst_out [31:0] $end
$var wire 32 $ debug_x7 [31:0] $end
$var wire 32 % debug_x6 [31:0] $end
$var wire 32 & debug_x5 [31:0] $end
$var wire 32 ' debug_x4 [31:0] $end
$var wire 32 ( debug_x3 [31:0] $end
$var wire 32 ) debug_x2 [31:0] $end
$var wire 32 * debug_x1 [31:0] $end
$var wire 32 + alu_result_out [31:0] $end
$var wire 32 , alu_b_out [31:0] $end
$var wire 32 - alu_a_out [31:0] $end
$var reg 1 . clk $end
$var reg 1 / reset $end
$scope module u_monociclo $end
$var wire 32 0 alu_a_out [31:0] $end
$var wire 32 1 alu_b_out [31:0] $end
$var wire 32 2 alu_result_out [31:0] $end
$var wire 1 . clk $end
$var wire 32 3 inst_out [31:0] $end
$var wire 32 4 next_pc_out [31:0] $end
$var wire 32 5 pc_out [31:0] $end
$var wire 1 / reset $end
$var wire 32 6 ru_write_data [31:0] $end
$var wire 32 7 ru_rs2_data [31:0] $end
$var wire 32 8 ru_rs1_data [31:0] $end
$var wire 5 9 rs2 [4:0] $end
$var wire 5 : rs1 [4:0] $end
$var wire 5 ; rd [4:0] $end
$var wire 32 < pc_plus4 [31:0] $end
$var wire 32 = pc_next [31:0] $end
$var wire 32 > pc_current [31:0] $end
$var wire 7 ? opcode [6:0] $end
$var wire 1 @ nextPCSrc $end
$var wire 32 A instruction [31:0] $end
$var wire 32 B immext [31:0] $end
$var wire 7 C funct7 [6:0] $end
$var wire 3 D funct3 [2:0] $end
$var wire 32 E dm_read_data [31:0] $end
$var wire 32 F debug_x7 [31:0] $end
$var wire 32 G debug_x6 [31:0] $end
$var wire 32 H debug_x5 [31:0] $end
$var wire 32 I debug_x4 [31:0] $end
$var wire 32 J debug_x3 [31:0] $end
$var wire 32 K debug_x2 [31:0] $end
$var wire 32 L debug_x1 [31:0] $end
$var wire 32 M alu_result [31:0] $end
$var wire 32 N alu_b [31:0] $end
$var wire 32 O alu_a [31:0] $end
$var wire 1 P RUWr $end
$var wire 2 Q RUDataWrSrc [1:0] $end
$var wire 3 R ImmSrc [2:0] $end
$var wire 1 S DmWr $end
$var wire 3 T DmCtrl [2:0] $end
$var wire 5 U BrOp [4:0] $end
$var wire 4 V AluOp [3:0] $end
$var wire 1 W AluBsrc $end
$var wire 1 X AluAsrc $end
$scope module u_alu $end
$var wire 32 Y B [31:0] $end
$var wire 4 Z ALUOp [3:0] $end
$var wire 32 [ A [31:0] $end
$var reg 32 \ ALURes [31:0] $end
$upscope $end
$scope module u_bru $end
$var wire 32 ] ru_rs2 [31:0] $end
$var wire 32 ^ ru_rs1 [31:0] $end
$var wire 5 _ brOp [4:0] $end
$var reg 1 @ nextPCSrc $end
$upscope $end
$scope module u_cu $end
$var wire 3 ` funct3 [2:0] $end
$var wire 7 a funct7 [6:0] $end
$var wire 7 b opcode [6:0] $end
$var reg 1 X AluAsrc $end
$var reg 1 W AluBsrc $end
$var reg 4 c AluOp [3:0] $end
$var reg 5 d BrOp [4:0] $end
$var reg 3 e DmCtrl [2:0] $end
$var reg 1 S DmWr $end
$var reg 3 f ImmSrc [2:0] $end
$var reg 2 g RUDataWrSrc [1:0] $end
$var reg 1 P RUWr $end
$upscope $end
$scope module u_dm $end
$var wire 3 h DMCtrl [2:0] $end
$var wire 1 S DMWr $end
$var wire 32 i addr [31:0] $end
$var wire 8 j b0 [7:0] $end
$var wire 8 k b1 [7:0] $end
$var wire 8 l b2 [7:0] $end
$var wire 8 m b3 [7:0] $end
$var wire 1 . clk $end
$var wire 10 n addr_limited [9:0] $end
$var wire 32 o DataWr [31:0] $end
$var wire 32 p DataRd [31:0] $end
$var integer 32 q i [31:0] $end
$scope begin dm_dbg[0] $end
$var parameter 2 r dbg_i $end
$upscope $end
$scope begin dm_dbg[1] $end
$var parameter 2 s dbg_i $end
$upscope $end
$scope begin dm_dbg[2] $end
$var parameter 3 t dbg_i $end
$upscope $end
$scope begin dm_dbg[3] $end
$var parameter 3 u dbg_i $end
$upscope $end
$scope begin dm_dbg[4] $end
$var parameter 4 v dbg_i $end
$upscope $end
$scope begin dm_dbg[5] $end
$var parameter 4 w dbg_i $end
$upscope $end
$scope begin dm_dbg[6] $end
$var parameter 4 x dbg_i $end
$upscope $end
$scope begin dm_dbg[7] $end
$var parameter 4 y dbg_i $end
$upscope $end
$upscope $end
$scope module u_im $end
$var wire 32 z inst [31:0] $end
$var wire 32 { addr [31:0] $end
$scope begin $unm_blk_9 $end
$var integer 32 | i [31:0] $end
$upscope $end
$upscope $end
$scope module u_immgen $end
$var wire 3 } immsrc [2:0] $end
$var wire 32 ~ inst [31:0] $end
$var wire 32 !" imm_U [31:0] $end
$var wire 32 "" imm_S [31:0] $end
$var wire 32 #" imm_J [31:0] $end
$var wire 32 $" imm_I [31:0] $end
$var wire 32 %" imm_B [31:0] $end
$var reg 32 &" immext [31:0] $end
$upscope $end
$scope module u_muxaluA $end
$var wire 1 X aluASrc $end
$var wire 32 '" ru_rs1 [31:0] $end
$var wire 32 (" pc [31:0] $end
$var reg 32 )" aluA [31:0] $end
$upscope $end
$scope module u_muxaluB $end
$var wire 1 W aluBSrc $end
$var wire 32 *" immgen [31:0] $end
$var wire 32 +" ru_rs2 [31:0] $end
$var reg 32 ," aluB [31:0] $end
$upscope $end
$scope module u_muxnextpc $end
$var wire 32 -" alu_result [31:0] $end
$var wire 1 @ nextPCSrc $end
$var wire 32 ." pc_plus4 [31:0] $end
$var reg 32 /" next_pc [31:0] $end
$upscope $end
$scope module u_muxrudata $end
$var wire 32 0" ALURes [31:0] $end
$var wire 32 1" DataRd [31:0] $end
$var wire 2 2" RUDataWrSrc [1:0] $end
$var wire 32 3" PCInc [31:0] $end
$var reg 32 4" DataWr [31:0] $end
$upscope $end
$scope module u_pc $end
$var wire 1 . clk $end
$var wire 32 5" next_pc [31:0] $end
$var wire 1 / reset $end
$var reg 32 6" pc_out [31:0] $end
$upscope $end
$scope module u_ru $end
$var wire 32 7" DataWr [31:0] $end
$var wire 1 P RUWr $end
$var wire 32 8" RU_rs1 [31:0] $end
$var wire 32 9" RU_rs2 [31:0] $end
$var wire 1 . clk $end
$var wire 32 :" debug_x1 [31:0] $end
$var wire 32 ;" debug_x2 [31:0] $end
$var wire 32 <" debug_x3 [31:0] $end
$var wire 32 =" debug_x4 [31:0] $end
$var wire 32 >" debug_x5 [31:0] $end
$var wire 32 ?" debug_x6 [31:0] $end
$var wire 32 @" debug_x7 [31:0] $end
$var wire 5 A" rd [4:0] $end
$var wire 5 B" rs1 [4:0] $end
$var wire 5 C" rs2 [4:0] $end
$scope begin $unm_blk_26 $end
$var integer 32 D" i [31:0] $end
$upscope $end
$upscope $end
$scope module u_sum $end
$var wire 32 E" pc_in [31:0] $end
$var reg 32 F" pc_out [31:0] $end
$upscope $end
$upscope $end
$upscope $end
$enddefinitions $end
$comment Show the parameter values. $end
$dumpall
b111 y
b110 x
b101 w
b100 v
b11 u
b10 t
b1 s
b0 r
$end
#0
$dumpvars
bx F"
bx E"
b100000 D"
bx C"
bx B"
bx A"
b0 @"
b0 ?"
b0 >"
b0 ="
b0 <"
b0 ;"
b0 :"
bx 9"
bx 8"
bx 7"
bx 6"
bx 5"
bx 4"
bx 3"
b0 2"
bx 1"
bx 0"
bx /"
bx ."
bx -"
bx ,"
bx +"
bx *"
bx )"
bx ("
bx '"
bx &"
bx0 %"
bx $"
bx0 #"
bx ""
bx000000000000 !"
bx ~
b0 }
b100000000 |
bx {
bx z
b10000000000 q
bx p
bx o
bx n
bx m
bx l
bx k
bx j
bx i
b0 h
b0 g
b0 f
b0 e
b0 d
b0 c
bx b
bx a
bx `
b0 _
bx ^
bx ]
bx \
bx [
b0 Z
bx Y
0X
0W
b0 V
b0 U
b0 T
0S
b0 R
b0 Q
0P
bx O
bx N
bx M
b0 L
b0 K
b0 J
b0 I
b0 H
b0 G
b0 F
bx E
bx D
bx C
bx B
bx A
0@
bx ?
bx >
bx =
bx <
bx ;
bx :
bx 9
bx 8
bx 7
bx 6
bx 5
bx 4
bx 3
bx 2
bx 1
bx 0
1/
0.
bx -
bx ,
bx +
b0 *
b0 )
b0 (
b0 '
b0 &
b0 %
b0 $
bx #
bx "
bx !
$end
#5000
b0 E
b0 p
b0 1"
b0 j
b0 k
b0 l
b0 m
b1 n
b1 6
b1 4"
b1 7"
b1 +
b1 2
b1 M
b1 \
b1 i
b1 -"
b1 0"
b1 B
b1 &"
b1 *"
1W
1P
b1 ,
b1 1
b1 N
b1 Y
b1 ,"
b0 -
b0 0
b0 O
b0 [
b0 )"
b1 $"
b1 ""
b100000000000 %"
b100000000000000000000 !"
b100000000000 #"
b0 C
b0 a
b0 D
b0 `
b10011 ?
b10011 b
b1 ;
b1 A"
b0 7
b0 ]
b0 o
b0 +"
b0 9"
b1 9
b1 C"
b0 8
b0 ^
b0 '"
b0 8"
b0 :
b0 B"
b100 "
b100 4
b100 =
b100 /"
b100 5"
b100000000000010010011 #
b100000000000010010011 3
b100000000000010010011 A
b100000000000010010011 z
b100000000000010010011 ~
b100 <
b100 ."
b100 3"
b100 F"
b0 !
b0 5
b0 >
b0 {
b0 ("
b0 6"
b0 E"
1.
#10000
0.
#15000
b1 7
b1 ]
b1 o
b1 +"
b1 9"
b1 *
b1 L
b1 :"
1.
#20000
0.
0/
#25000
b110 n
b110 6
b110 4"
b110 7"
b110 +
b110 2
b110 M
b110 \
b110 i
b110 -"
b110 0"
b110 ,
b110 1
b110 N
b110 Y
b110 ,"
b110 B
b110 &"
b110 *"
b110 $"
b10 ""
b10 %"
b11000000000000000000000 !"
b110 #"
b10 ;
b10 A"
b0 7
b0 ]
b0 o
b0 +"
b0 9"
b110 9
b110 C"
b1000 "
b1000 4
b1000 =
b1000 /"
b1000 5"
b11000000000000100010011 #
b11000000000000100010011 3
b11000000000000100010011 A
b11000000000000100010011 z
b11000000000000100010011 ~
b1000 <
b1000 ."
b1000 3"
b1000 F"
b100 !
b100 5
b100 >
b100 {
b100 ("
b100 6"
b100 E"
1.
#30000
0.
#35000
b0 n
b0 6
b0 4"
b0 7"
b0 +
b0 2
b0 M
b0 \
b0 i
b0 -"
b0 0"
b0 ,
b0 1
b0 N
b0 Y
b0 ,"
b0 B
b0 &"
b0 *"
b0 $"
b11 ""
b100000000010 %"
b0 !"
b0 #"
b11 ;
b11 A"
b0 9
b0 C"
b1100 "
b1100 4
b1100 =
b1100 /"
b1100 5"
b110010011 #
b110010011 3
b110010011 A
b110010011 z
b110010011 ~
b1100 <
b1100 ."
b1100 3"
b1100 F"
b110 )
b110 K
b110 ;"
b1000 !
b1000 5
b1000 >
b1000 {
b1000 ("
b1000 6"
b1000 E"
1.
#40000
0.
#45000
b100 ""
b100 %"
b100 ;
b100 A"
b10000 "
b10000 4
b10000 =
b10000 /"
b10000 5"
b1000010011 #
b1000010011 3
b1000010011 A
b1000010011 z
b1000010011 ~
b10000 <
b10000 ."
b10000 3"
b10000 F"
b1100 !
b1100 5
b1100 >
b1100 {
b1100 ("
b1100 6"
b1100 E"
1.
#50000
0.
#55000
b1 n
b1 6
b1 4"
b1 7"
b1 +
b1 2
b1 M
b1 \
b1 i
b1 -"
b1 0"
b1 ,
b1 1
b1 N
b1 Y
b1 ,"
b1 B
b1 &"
b1 *"
0W
1P
b1 $"
b11 ""
b100000000010 %"
b100011000000000000000 !"
b11000100000000000 #"
b110011 ?
b110011 b
b11 ;
b11 A"
b1 7
b1 ]
b1 o
b1 +"
b1 9"
b1 9
b1 C"
b11 :
b11 B"
b10100 "
b10100 4
b10100 =
b10100 /"
b10100 5"
b100011000000110110011 #
b100011000000110110011 3
b100011000000110110011 A
b100011000000110110011 z
b100011000000110110011 ~
b10100 <
b10100 ."
b10100 3"
b10100 F"
b10000 !
b10000 5
b10000 >
b10000 {
b10000 ("
b10000 6"
b10000 E"
1.
#60000
0.
#65000
1W
1P
b10 n
b1 ""
b100000000000 %"
b100001000000000000000 !"
b1000100000000000 #"
b10011 ?
b10011 b
b1 ;
b1 A"
b1 :
b1 B"
b11000 "
b11000 4
b11000 =
b11000 /"
b11000 5"
b10 6
b10 4"
b10 7"
b10 +
b10 2
b10 M
b10 \
b10 i
b10 -"
b10 0"
b100001000000010010011 #
b100001000000010010011 3
b100001000000010010011 A
b100001000000010010011 z
b100001000000010010011 ~
b11000 <
b11000 ."
b11000 3"
b11000 F"
b1 -
b1 0
b1 O
b1 [
b1 )"
b10100 !
b10100 5
b10100 >
b10100 {
b10100 ("
b10100 6"
b10100 E"
b1 8
b1 ^
b1 '"
b1 8"
b1 (
b1 J
b1 <"
1.
#70000
0.
#75000
1@
b11111111111111111111111111111000 ,
b11111111111111111111111111111000 1
b11111111111111111111111111111000 N
b11111111111111111111111111111000 Y
b11111111111111111111111111111000 ,"
b11111111111111111111111111111000 B
b11111111111111111111111111111000 &"
b11111111111111111111111111111000 *"
b1100 U
b1100 _
b1100 d
1X
b101 R
b101 f
b101 }
1W
0P
b10000 n
b10000 6
b10000 4"
b10000 7"
b11111111111111111111111111100010 $"
b11111111111111111111111111111001 ""
b11111111111111111111111111111000 %"
b11111110001000001100000000000000 !"
b11111111111100001100011111100010 #"
b1111111 C
b1111111 a
b100 D
b100 `
b1100011 ?
b1100011 b
b11001 ;
b11001 A"
b10 9
b10 C"
b10000 +
b10000 2
b10000 M
b10000 \
b10000 i
b10000 -"
b10000 0"
b10000 "
b10000 4
b10000 =
b10000 /"
b10000 5"
b11111110001000001100110011100011 #
b11111110001000001100110011100011 3
b11111110001000001100110011100011 A
b11111110001000001100110011100011 z
b11111110001000001100110011100011 ~
b11000 -
b11000 0
b11000 O
b11000 [
b11000 )"
b11100 <
b11100 ."
b11100 3"
b11100 F"
b10 8
b10 ^
b10 '"
b10 8"
b110 7
b110 ]
b110 o
b110 +"
b110 9"
b10 *
b10 L
b10 :"
b11000 !
b11000 5
b11000 >
b11000 {
b11000 ("
b11000 6"
b11000 E"
1.
#80000
0.
#85000
0@
b10 ,
b10 1
b10 N
b10 Y
b10 ,"
b1 B
b1 &"
b1 *"
1P
b0 U
b0 _
b0 d
0W
0X
b0 R
b0 f
b0 }
b11 n
b10100 "
b10100 4
b10100 =
b10100 /"
b10100 5"
b11 6
b11 4"
b11 7"
b1 $"
b11 ""
b100000000010 %"
b100011000000000000000 !"
b11000100000000000 #"
b0 C
b0 a
b0 D
b0 `
b110011 ?
b110011 b
b11 ;
b11 A"
b10 7
b10 ]
b10 o
b10 +"
b10 9"
b1 9
b1 C"
b1 8
b1 ^
b1 '"
b1 8"
b11 :
b11 B"
b11 +
b11 2
b11 M
b11 \
b11 i
b11 -"
b11 0"
b100011000000110110011 #
b100011000000110110011 3
b100011000000110110011 A
b100011000000110110011 z
b100011000000110110011 ~
b1 -
b1 0
b1 O
b1 [
b1 )"
b10100 <
b10100 ."
b10100 3"
b10100 F"
b10000 !
b10000 5
b10000 >
b10000 {
b10000 ("
b10000 6"
b10000 E"
1.
#90000
0.
#95000
b1 ,
b1 1
b1 N
b1 Y
b1 ,"
1W
1P
b11 n
b11 6
b11 4"
b11 7"
b1 ""
b100000000000 %"
b100001000000000000000 !"
b1000100000000000 #"
b10011 ?
b10011 b
b1 ;
b1 A"
b1 :
b1 B"
b11 +
b11 2
b11 M
b11 \
b11 i
b11 -"
b11 0"
b11000 "
b11000 4
b11000 =
b11000 /"
b11000 5"
b100001000000010010011 #
b100001000000010010011 3
b100001000000010010011 A
b100001000000010010011 z
b100001000000010010011 ~
b10 -
b10 0
b10 O
b10 [
b10 )"
b11000 <
b11000 ."
b11000 3"
b11000 F"
b10 8
b10 ^
b10 '"
b10 8"
b11 (
b11 J
b11 <"
b10100 !
b10100 5
b10100 >
b10100 {
b10100 ("
b10100 6"
b10100 E"
1.
#100000
0.
#105000
1@
b11111111111111111111111111111000 ,
b11111111111111111111111111111000 1
b11111111111111111111111111111000 N
b11111111111111111111111111111000 Y
b11111111111111111111111111111000 ,"
b11111111111111111111111111111000 B
b11111111111111111111111111111000 &"
b11111111111111111111111111111000 *"
b1100 U
b1100 _
b1100 d
1X
b101 R
b101 f
b101 }
1W
0P
b10000 n
b11111111111111111111111111100010 $"
b11111111111111111111111111111001 ""
b11111111111111111111111111111000 %"
b11111110001000001100000000000000 !"
b11111111111100001100011111100010 #"
b1111111 C
b1111111 a
b100 D
b100 `
b1100011 ?
b1100011 b
b11001 ;
b11001 A"
b10 9
b10 C"
b10000 "
b10000 4
b10000 =
b10000 /"
b10000 5"
b10000 6
b10000 4"
b10000 7"
b10000 +
b10000 2
b10000 M
b10000 \
b10000 i
b10000 -"
b10000 0"
b11111110001000001100110011100011 #
b11111110001000001100110011100011 3
b11111110001000001100110011100011 A
b11111110001000001100110011100011 z
b11111110001000001100110011100011 ~
b11100 <
b11100 ."
b11100 3"
b11100 F"
b11000 -
b11000 0
b11000 O
b11000 [
b11000 )"
b11000 !
b11000 5
b11000 >
b11000 {
b11000 ("
b11000 6"
b11000 E"
b11 8
b11 ^
b11 '"
b11 8"
b110 7
b110 ]
b110 o
b110 +"
b110 9"
b11 *
b11 L
b11 :"
1.
#110000
0.
#115000
b11 ,
b11 1
b11 N
b11 Y
b11 ,"
b1 B
b1 &"
b1 *"
1P
b0 U
b0 _
b0 d
0W
0X
b0 R
b0 f
b0 }
0@
b110 n
b10100 "
b10100 4
b10100 =
b10100 /"
b10100 5"
b110 6
b110 4"
b110 7"
b1 $"
b11 ""
b100000000010 %"
b100011000000000000000 !"
b11000100000000000 #"
b0 C
b0 a
b0 D
b0 `
b110011 ?
b110011 b
b11 ;
b11 A"
b11 7
b11 ]
b11 o
b11 +"
b11 9"
b1 9
b1 C"
b11 :
b11 B"
b110 +
b110 2
b110 M
b110 \
b110 i
b110 -"
b110 0"
b100011000000110110011 #
b100011000000110110011 3
b100011000000110110011 A
b100011000000110110011 z
b100011000000110110011 ~
b11 -
b11 0
b11 O
b11 [
b11 )"
b10100 <
b10100 ."
b10100 3"
b10100 F"
b10000 !
b10000 5
b10000 >
b10000 {
b10000 ("
b10000 6"
b10000 E"
1.
#120000
0.
#125000
b1 ,
b1 1
b1 N
b1 Y
b1 ,"
1W
1P
b100 n
b1 ""
b100000000000 %"
b100001000000000000000 !"
b1000100000000000 #"
b10011 ?
b10011 b
b1 ;
b1 A"
b1 :
b1 B"
b11000 "
b11000 4
b11000 =
b11000 /"
b11000 5"
b100 6
b100 4"
b100 7"
b100 +
b100 2
b100 M
b100 \
b100 i
b100 -"
b100 0"
b100001000000010010011 #
b100001000000010010011 3
b100001000000010010011 A
b100001000000010010011 z
b100001000000010010011 ~
b11000 <
b11000 ."
b11000 3"
b11000 F"
b11 -
b11 0
b11 O
b11 [
b11 )"
b10100 !
b10100 5
b10100 >
b10100 {
b10100 ("
b10100 6"
b10100 E"
b11 8
b11 ^
b11 '"
b11 8"
b110 (
b110 J
b110 <"
1.
#130000
0.
#135000
1@
b11111111111111111111111111111000 ,
b11111111111111111111111111111000 1
b11111111111111111111111111111000 N
b11111111111111111111111111111000 Y
b11111111111111111111111111111000 ,"
b11111111111111111111111111111000 B
b11111111111111111111111111111000 &"
b11111111111111111111111111111000 *"
b1100 U
b1100 _
b1100 d
1X
b101 R
b101 f
b101 }
1W
0P
b10000 n
b10000 6
b10000 4"
b10000 7"
b11111111111111111111111111100010 $"
b11111111111111111111111111111001 ""
b11111111111111111111111111111000 %"
b11111110001000001100000000000000 !"
b11111111111100001100011111100010 #"
b1111111 C
b1111111 a
b100 D
b100 `
b1100011 ?
b1100011 b
b11001 ;
b11001 A"
b10 9
b10 C"
b10000 +
b10000 2
b10000 M
b10000 \
b10000 i
b10000 -"
b10000 0"
b10000 "
b10000 4
b10000 =
b10000 /"
b10000 5"
b11111110001000001100110011100011 #
b11111110001000001100110011100011 3
b11111110001000001100110011100011 A
b11111110001000001100110011100011 z
b11111110001000001100110011100011 ~
b11000 -
b11000 0
b11000 O
b11000 [
b11000 )"
b11100 <
b11100 ."
b11100 3"
b11100 F"
b100 8
b100 ^
b100 '"
b100 8"
b110 7
b110 ]
b110 o
b110 +"
b110 9"
b100 *
b100 L
b100 :"
b11000 !
b11000 5
b11000 >
b11000 {
b11000 ("
b11000 6"
b11000 E"
1.
#140000
0.
#145000
b100 ,
b100 1
b100 N
b100 Y
b100 ,"
b1 B
b1 &"
b1 *"
1P
b0 U
b0 _
b0 d
0W
0X
b0 R
b0 f
b0 }
0@
b1010 n
b10100 "
b10100 4
b10100 =
b10100 /"
b10100 5"
b1010 6
b1010 4"
b1010 7"
b1 $"
b11 ""
b100000000010 %"
b100011000000000000000 !"
b11000100000000000 #"
b0 C
b0 a
b0 D
b0 `
b110011 ?
b110011 b
b11 ;
b11 A"
b100 7
b100 ]
b100 o
b100 +"
b100 9"
b1 9
b1 C"
b110 8
b110 ^
b110 '"
b110 8"
b11 :
b11 B"
b1010 +
b1010 2
b1010 M
b1010 \
b1010 i
b1010 -"
b1010 0"
b100011000000110110011 #
b100011000000110110011 3
b100011000000110110011 A
b100011000000110110011 z
b100011000000110110011 ~
b110 -
b110 0
b110 O
b110 [
b110 )"
b10100 <
b10100 ."
b10100 3"
b10100 F"
b10000 !
b10000 5
b10000 >
b10000 {
b10000 ("
b10000 6"
b10000 E"
1.
#150000
0.
#155000
b1 ,
b1 1
b1 N
b1 Y
b1 ,"
1W
1P
b101 n
b101 6
b101 4"
b101 7"
b1 ""
b100000000000 %"
b100001000000000000000 !"
b1000100000000000 #"
b10011 ?
b10011 b
b1 ;
b1 A"
b1 :
b1 B"
b101 +
b101 2
b101 M
b101 \
b101 i
b101 -"
b101 0"
b11000 "
b11000 4
b11000 =
b11000 /"
b11000 5"
b100001000000010010011 #
b100001000000010010011 3
b100001000000010010011 A
b100001000000010010011 z
b100001000000010010011 ~
b100 -
b100 0
b100 O
b100 [
b100 )"
b11000 <
b11000 ."
b11000 3"
b11000 F"
b100 8
b100 ^
b100 '"
b100 8"
b1010 (
b1010 J
b1010 <"
b10100 !
b10100 5
b10100 >
b10100 {
b10100 ("
b10100 6"
b10100 E"
1.
#160000
0.
#165000
1@
b11111111111111111111111111111000 ,
b11111111111111111111111111111000 1
b11111111111111111111111111111000 N
b11111111111111111111111111111000 Y
b11111111111111111111111111111000 ,"
b11111111111111111111111111111000 B
b11111111111111111111111111111000 &"
b11111111111111111111111111111000 *"
b1100 U
b1100 _
b1100 d
1X
b101 R
b101 f
b101 }
1W
0P
b10000 n
b11111111111111111111111111100010 $"
b11111111111111111111111111111001 ""
b11111111111111111111111111111000 %"
b11111110001000001100000000000000 !"
b11111111111100001100011111100010 #"
b1111111 C
b1111111 a
b100 D
b100 `
b1100011 ?
b1100011 b
b11001 ;
b11001 A"
b10 9
b10 C"
b10000 "
b10000 4
b10000 =
b10000 /"
b10000 5"
b10000 6
b10000 4"
b10000 7"
b10000 +
b10000 2
b10000 M
b10000 \
b10000 i
b10000 -"
b10000 0"
b11111110001000001100110011100011 #
b11111110001000001100110011100011 3
b11111110001000001100110011100011 A
b11111110001000001100110011100011 z
b11111110001000001100110011100011 ~
b11100 <
b11100 ."
b11100 3"
b11100 F"
b11000 -
b11000 0
b11000 O
b11000 [
b11000 )"
b11000 !
b11000 5
b11000 >
b11000 {
b11000 ("
b11000 6"
b11000 E"
b101 8
b101 ^
b101 '"
b101 8"
b110 7
b110 ]
b110 o
b110 +"
b110 9"
b101 *
b101 L
b101 :"
1.
#170000
0.
#175000
b101 ,
b101 1
b101 N
b101 Y
b101 ,"
b1 B
b1 &"
b1 *"
1P
b0 U
b0 _
b0 d
0W
0X
b0 R
b0 f
b0 }
0@
b1111 n
b10100 "
b10100 4
b10100 =
b10100 /"
b10100 5"
b1111 6
b1111 4"
b1111 7"
b1 $"
b11 ""
b100000000010 %"
b100011000000000000000 !"
b11000100000000000 #"
b0 C
b0 a
b0 D
b0 `
b110011 ?
b110011 b
b11 ;
b11 A"
b101 7
b101 ]
b101 o
b101 +"
b101 9"
b1 9
b1 C"
b1010 8
b1010 ^
b1010 '"
b1010 8"
b11 :
b11 B"
b1111 +
b1111 2
b1111 M
b1111 \
b1111 i
b1111 -"
b1111 0"
b100011000000110110011 #
b100011000000110110011 3
b100011000000110110011 A
b100011000000110110011 z
b100011000000110110011 ~
b1010 -
b1010 0
b1010 O
b1010 [
b1010 )"
b10100 <
b10100 ."
b10100 3"
b10100 F"
b10000 !
b10000 5
b10000 >
b10000 {
b10000 ("
b10000 6"
b10000 E"
1.
#180000
0.
#185000
b1 ,
b1 1
b1 N
b1 Y
b1 ,"
1W
1P
b110 n
b1 ""
b100000000000 %"
b100001000000000000000 !"
b1000100000000000 #"
b10011 ?
b10011 b
b1 ;
b1 A"
b1 :
b1 B"
b11000 "
b11000 4
b11000 =
b11000 /"
b11000 5"
b110 6
b110 4"
b110 7"
b110 +
b110 2
b110 M
b110 \
b110 i
b110 -"
b110 0"
b100001000000010010011 #
b100001000000010010011 3
b100001000000010010011 A
b100001000000010010011 z
b100001000000010010011 ~
b11000 <
b11000 ."
b11000 3"
b11000 F"
b101 -
b101 0
b101 O
b101 [
b101 )"
b10100 !
b10100 5
b10100 >
b10100 {
b10100 ("
b10100 6"
b10100 E"
b101 8
b101 ^
b101 '"
b101 8"
b1111 (
b1111 J
b1111 <"
1.
#190000
0.
#195000
b11111111111111111111111111111000 ,
b11111111111111111111111111111000 1
b11111111111111111111111111111000 N
b11111111111111111111111111111000 Y
b11111111111111111111111111111000 ,"
b11111111111111111111111111111000 B
b11111111111111111111111111111000 &"
b11111111111111111111111111111000 *"
b1100 U
b1100 _
b1100 d
1X
b101 R
b101 f
b101 }
1W
0P
b10000 n
b10000 6
b10000 4"
b10000 7"
b11111111111111111111111111100010 $"
b11111111111111111111111111111001 ""
b11111111111111111111111111111000 %"
b11111110001000001100000000000000 !"
b11111111111100001100011111100010 #"
b1111111 C
b1111111 a
b100 D
b100 `
b1100011 ?
b1100011 b
b11001 ;
b11001 A"
b10 9
b10 C"
b10000 +
b10000 2
b10000 M
b10000 \
b10000 i
b10000 -"
b10000 0"
b11100 "
b11100 4
b11100 =
b11100 /"
b11100 5"
b11111110001000001100110011100011 #
b11111110001000001100110011100011 3
b11111110001000001100110011100011 A
b11111110001000001100110011100011 z
b11111110001000001100110011100011 ~
b11000 -
b11000 0
b11000 O
b11000 [
b11000 )"
b11100 <
b11100 ."
b11100 3"
b11100 F"
b110 8
b110 ^
b110 '"
b110 8"
b110 7
b110 ]
b110 o
b110 +"
b110 9"
b110 *
b110 L
b110 :"
b11000 !
b11000 5
b11000 >
b11000 {
b11000 ("
b11000 6"
b11000 E"
1.
#200000
0.
#205000
b0 ,
b0 1
b0 N
b0 Y
b0 ,"
b0 B
b0 &"
b0 *"
b10 T
b10 e
b10 h
1S
b0 U
b0 _
b0 d
1W
0X
b1 R
b1 f
b1 }
0@
b0 n
b0 6
b0 4"
b0 7"
b11 $"
b0 ""
b0 %"
b1100100010000000000000 !"
b100010100000000010 #"
b0 C
b0 a
b10 D
b10 `
b100011 ?
b100011 b
b0 ;
b0 A"
b1111 7
b1111 ]
b1111 o
b1111 +"
b1111 9"
b11 9
b11 C"
b0 8
b0 ^
b0 '"
b0 8"
b100 :
b100 B"
b0 +
b0 2
b0 M
b0 \
b0 i
b0 -"
b0 0"
b100000 "
b100000 4
b100000 =
b100000 /"
b100000 5"
b1100100010000000100011 #
b1100100010000000100011 3
b1100100010000000100011 A
b1100100010000000100011 z
b1100100010000000100011 ~
b0 -
b0 0
b0 O
b0 [
b0 )"
b100000 <
b100000 ."
b100000 3"
b100000 F"
b11100 !
b11100 5
b11100 >
b11100 {
b11100 ("
b11100 6"
b11100 E"
1.
#210000
0.
#215000
b1010 n
b1010 6
b1010 4"
b1010 7"
b1010 +
b1010 2
b1010 M
b1010 \
b1010 i
b1010 -"
b1010 0"
b1010 ,
b1010 1
b1010 N
b1010 Y
b1010 ,"
b0 E
b0 p
b0 1"
b1010 B
b1010 &"
b1010 *"
1P
b0 T
b0 e
b0 h
0S
1W
b0 R
b0 f
b0 }
b1010 $"
b101 ""
b100000000100 %"
b101000000000000000000000 !"
b1010 #"
b0 D
b0 `
b10011 ?
b10011 b
b101 ;
b101 A"
b0 7
b0 ]
b0 o
b0 +"
b0 9"
b1010 9
b1010 C"
b0 :
b0 B"
b100100 "
b100100 4
b100100 =
b100100 /"
b100100 5"
b101000000000001010010011 #
b101000000000001010010011 3
b101000000000001010010011 A
b101000000000001010010011 z
b101000000000001010010011 ~
b100100 <
b100100 ."
b100100 3"
b100100 F"
b0 j
b100000 !
b100000 5
b100000 >
b100000 {
b100000 ("
b100000 6"
b100000 E"
1.
#220000
0.
#225000
b10100 n
b10100 6
b10100 4"
b10100 7"
b10100 +
b10100 2
b10100 M
b10100 \
b10100 i
b10100 -"
b10100 0"
b10100 ,
b10100 1
b10100 N
b10100 Y
b10100 ,"
b10100 B
b10100 &"
b10100 *"
b10100 $"
b110 ""
b110 %"
b1010000000000000000000000 !"
b10100 #"
b110 ;
b110 A"
b10100 9
b10100 C"
b101000 "
b101000 4
b101000 =
b101000 /"
b101000 5"
b1010000000000001100010011 #
b1010000000000001100010011 3
b1010000000000001100010011 A
b1010000000000001100010011 z
b1010000000000001100010011 ~
b101000 <
b101000 ."
b101000 3"
b101000 F"
b100100 !
b100100 5
b100100 >
b100100 {
b100100 ("
b100100 6"
b100100 E"
b1010 &
b1010 H
b1010 >"
1.
#230000
0.
